<?xml version="1.0" encoding="utf-8"?>
<!-- Generator: Adobe Illustrator 22.0.0, SVG Export Plug-In . SVG Version: 6.00 Build 0)  -->
<svg version="1.1" id="Layer_1" xmlns="http://www.w3.org/2000/svg" xmlns:xlink="http://www.w3.org/1999/xlink" x="0px" y="0px"
	 viewBox="0 0 152.2 256" style="enable-background:new 0 0 152.2 256;" xml:space="preserve">
<style type="text/css">
	.st0{fill:#212D4B;}
</style>
<g id="Layer_2_1_">
</g>
<g id="Layer_1_1_">
	<g id="Back_">
		<path id="line" class="st0" d="M145.7,41.3L42,144.6c-9.4,9.4-24.7,9.4-34.1,0l-0.4-0.4c-9.4-9.4-9.4-24.5,0-33.9L111.3,7
			c9.4-9.4,24.7-9.4,34.1,0l0.4,0.4C155.1,16.8,155.1,31.9,145.7,41.3z"/>
		<path id="line-2" class="st0" d="M42,111.4l103.7,103.3c9.4,9.4,9.4,24.5,0,33.9l-0.4,0.4c-9.4,9.4-24.7,9.4-34.1,0L7.6,145.7
			c-9.4-9.4-9.4-24.5,0-33.9l0.4-0.4C17.3,102,32.7,102,42,111.4z"/>
	</g>
</g>
</svg>
