<?xml version="1.0" encoding="utf-8"?>
<!-- Generator: Adobe Illustrator 22.0.0, SVG Export Plug-In . SVG Version: 6.00 Build 0)  -->
<svg version="1.1" xmlns="http://www.w3.org/2000/svg" xmlns:xlink="http://www.w3.org/1999/xlink" x="0px" y="0px"
	 viewBox="0 0 256 256" style="enable-background:new 0 0 256 256;" xml:space="preserve">
<style type="text/css">
	.st0{fill:#212D4B;}
</style>
<g id="Layer_1">
	<g>
		<path id="line" class="st0" d="M69.6,126.5l45.3,40.8c5.4,4.9,5.9,13.2,1,18.6l-0.2,0.2c-4.9,5.4-13.2,5.9-18.6,1l-45.3-40.8
			c-5.4-4.9-5.9-13.2-1-18.6l0.2-0.2C55.9,122.1,64.2,121.6,69.6,126.5z"/>
		<path id="line-2" class="st0" d="M96.7,168.3l88.7-98.5c4.9-5.4,13.2-5.9,18.6-1l0.2,0.2c5.4,4.9,5.9,13.2,1,18.6l-88.7,98.5
			c-4.9,5.4-13.2,5.9-18.6,1l-0.2-0.2C92.3,182.1,91.8,173.7,96.7,168.3z"/>
	</g>
</g>
<g id="Layer_2">
</g>
</svg>
