<?xml version="1.0" encoding="UTF-8"?>
<svg style="enable-background:new 0 0 407.5 407.5" version="1.1" viewBox="0 0 407.5 407.5" xmlns="http://www.w3.org/2000/svg"><style type="text/css">.st0{fill:#212D4B;}
	.st1{fill:none;stroke:#212D4B;stroke-width:17.71;}</style><path class="st0" d="m179.6 62.9a14.2 14.2 0 0 1-14.2 14.2 14.2 14.2 0 0 1-14.2-14.2 14.2 14.2 0 0 1 14.2-14.2 14.2 14.2 0 0 1 14.2 14.2" style="fill:#212d4b"/><path class="st0" d="m131.1 94.8a17.7 17.7 0 0 1-17.7 17.7 17.7 17.7 0 0 1-17.7-17.7 17.7 17.7 0 0 1 17.7-17.7 17.7 17.7 0 0 1 17.7 17.7" style="fill:#212d4b"/><path class="st0" d="m99.3 163.6a20.4 20.4 0 0 1-20.4 20.4 20.4 20.4 0 0 1-20.4-20.4 20.4 20.4 0 0 1 20.4-20.4 20.4 20.4 0 0 1 20.4 20.4" style="fill:#212d4b"/><path class="st0" d="m102.8 238.6a23.9 23.9 0 0 1-23.9 23.9 23.9 23.9 0 0 1-23.9-23.9 23.9 23.9 0 0 1 23.9-23.9 23.9 23.9 0 0 1 23.9 23.9" style="fill:#212d4b"/><path class="st0" d="m159.4 305a28.3 28.3 0 0 1-28.3 28.3 28.3 28.3 0 0 1-28.3-28.3 28.3 28.3 0 0 1 28.3-28.3 28.3 28.3 0 0 1 28.3 28.3" style="fill:#212d4b"/><path class="st0" transform="matrix(.070889 -.9975 .9975 .070889 -113.15 532.28)" d="m261 326.9a31.9 31.9 0 0 1-31.9 31.9 31.9 31.9 0 0 1-31.9-31.9 31.9 31.9 0 0 1 31.9-31.9 31.9 31.9 0 0 1 31.9 31.9" style="fill:#212d4b"/><path class="st0" d="m352.6 286.1a33.7 33.7 0 0 1-33.7 33.7 33.7 33.7 0 0 1-33.7-33.7 33.7 33.7 0 0 1 33.7-33.7 33.7 33.7 0 0 1 33.7 33.7" style="fill:#212d4b"/></svg>
