<?xml version="1.0" encoding="utf-8"?>
<!-- Generator: Adobe Illustrator 22.0.0, SVG Export Plug-In . SVG Version: 6.00 Build 0)  -->
<svg version="1.1" id="Layer_1" xmlns="http://www.w3.org/2000/svg" xmlns:xlink="http://www.w3.org/1999/xlink" x="0px" y="0px"
	 viewBox="0 0 256 256" style="enable-background:new 0 0 256 256;" xml:space="preserve">
<style type="text/css">
	.st0{fill:none;stroke:#212D4B;stroke-width:16;stroke-linecap:round;stroke-linejoin:round;}
	.st1{fill:#FFFFFF;stroke:#212D4B;stroke-width:16;stroke-linecap:round;}
	.st2{fill:#212D4B;}
</style>
<g id="Layer_1_1_">
	<g id="Grupo_7">
		<g id="Grupo_69">
			<path id="Caminho_30" class="st0" d="M157.1,129.5H47.6L90,84.2"/>
			<path id="Caminho_31" class="st1" d="M47.7,129.5l40.1,42.2"/>
		</g>
		<g id="Elipse_5">
			<circle class="st2" cx="200.6" cy="129.5" r="7.8"/>
		</g>
	</g>
</g>
</svg>
